<?xml version="1.0" encoding="UTF-8"?>
<svg width="156px" height="32px" viewBox="0 0 156 32" version="1.1" xmlns="http://www.w3.org/2000/svg" xmlns:xlink="http://www.w3.org/1999/xlink">
    <!-- Generator: Sketch 52.4 (67378) - http://www.bohemiancoding.com/sketch -->
    <title>Group</title>
    <desc>Created with Sketch.</desc>
    <defs>
        <polygon id="path-1" points="0.341784969 0.425617284 62.2867955 0.425617284 62.2867955 17.5099383 0.341784969 17.5099383"></polygon>
        <polygon id="path-3" points="0.0521183021 0.397962963 9.48201593 0.397962963 9.48201593 23.2813519 0.0521183021 23.2813519"></polygon>
        <polygon id="path-5" points="0.336273708 0.397962963 9.76573738 0.397962963 9.76573738 23.2799259 0.336273708 23.2799259"></polygon>
        <polygon id="path-7" points="0 31.5899074 155.587669 31.5899074 155.587669 0.444660494 0 0.444660494"></polygon>
    </defs>
    <g id="Page-1" stroke="none" stroke-width="1" fill="none" fill-rule="evenodd">
        <g id="Desktop-Copy-6" transform="translate(-37.000000, -719.000000)">
            <g id="Group-4-Copy-2" transform="translate(-2.000000, 700.000000)">
                <g id="Group-3">
                    <g id="Group-2" transform="translate(39.000000, 19.000000)">
                        <g id="Group">
                            <path d="M71.8278297,11.0045062 C71.6642277,12.4230864 70.3285063,13.62 68.9098991,13.62 C68.2863021,13.62 67.7377797,13.3918519 67.3654441,12.9753086 C66.9909388,12.5596296 66.8269028,11.9875309 66.8972039,11.367037 C67.0621078,9.93679012 68.409546,8.72950617 69.8394362,8.72950617 C70.4461088,8.72950617 70.9824803,8.95765432 71.3504764,9.36814815 C71.7310571,9.79333333 71.8994327,10.3762346 71.8278297,11.0045062 Z M61.100399,8.89067901 L59.638396,8.90104938 C59.638396,8.90104938 61.8281458,7.59654321 61.845938,7.61469136 C61.8281458,7.59654321 61.100399,8.89067901 61.100399,8.89067901 Z M55.4515735,8.88851852 C55.20118,8.90753086 54.6040544,8.98401235 54.2798881,9.30333333 C54.0121363,9.51679012 53.7604409,9.92425926 53.6892719,10.0443827 L52.1916843,12.5159877 C52.0298182,12.1698765 51.9647245,11.7688889 52.0128938,11.3458642 C52.1795335,9.91648148 53.5252359,8.71049383 54.955126,8.71049383 C55.2706132,8.71049383 55.5670062,8.77314815 55.8299845,8.88851852 L55.4515735,8.88851852 Z M41.2064828,9.53148148 C41.1552759,9.92296296 40.734337,10.128642 40.3433413,10.128642 L39.2580134,10.128642 L39.4190117,8.92524691 L40.5789802,8.92524691 C40.7699215,8.92524691 40.9400329,8.98617284 41.0572014,9.09895062 C41.1756719,9.21302469 41.2294826,9.36598765 41.2064828,9.53148148 Z M76.1904049,5.045 C74.6880439,3.36975309 72.5616519,2.44549383 70.2022247,2.44549383 C67.121126,2.44549383 64.2253273,4.0637037 62.4252714,6.48950617 L62.0794072,5.94117284 C60.6417058,3.65450617 58.3430327,2.44549383 55.4346491,2.44549383 C52.1634771,2.44549383 49.1027745,4.26851852 47.3378691,6.94839506 C47.0748908,6.07944444 46.6457068,5.28783951 46.0594302,4.63148148 C44.9697627,3.41685185 43.4344209,2.74580247 41.7354771,2.74580247 L33.6968474,2.74580247 L32.1580339,16.0458025 L27.310728,2.74580247 L24.0447635,2.74580247 C23.4580529,2.74580247 22.6560993,3.03141975 22.1605198,3.83814815 C21.9070886,4.25555556 21.6436764,4.69932099 21.6436764,4.69932099 L15.6264209,14.4829012 L11.7681043,11.8108025 L10.8459445,12.5142593 C9.70810782,13.3918519 9.13181218,13.5426543 8.3424434,13.5426543 C7.72926137,13.5426543 7.18985213,13.3183951 6.82055426,12.9040123 C6.44648285,12.4883333 6.2802771,11.9145062 6.3518801,11.292716 C6.51765189,9.86203704 7.85337323,8.65388889 9.2706786,8.65388889 C10.073934,8.65388889 10.6606446,8.92006173 11.2981283,9.56302469 L12.1729867,10.4466667 L17.2706861,7.40598765 L16.4348838,6.04358025 C15.0162766,3.74351852 12.4737193,2.36901235 9.63346712,2.36901235 C4.90029208,2.36901235 0.60411231,6.21037037 0.0594955805,10.9314815 C-0.215199551,13.300679 0.46741568,15.5367901 1.98192754,17.2284568 C3.48342067,18.9075926 5.61458622,19.832284 7.97965488,19.832284 C9.89297373,19.832284 11.7984813,19.207037 13.4010866,18.0974074 L12.5548694,19.4749383 L18.6341807,19.4749383 C18.651539,19.4749383 18.6706332,19.4770988 18.692765,19.4770988 C18.9331775,19.4770988 19.4074931,19.4351852 19.8805068,19.1491358 C20.3643695,18.8553086 20.625178,18.4258025 20.7249882,18.2291975 L21.1003615,17.6173457 L25.7259151,17.6173457 L26.4336998,19.4749383 L33.4104354,19.4814198 L33.4095675,19.4770988 L38.290722,19.4952469 L38.6773782,16.092037 L38.7133967,16.092037 C39.2471645,17.0815432 39.917195,18.3117284 40.0360993,18.4940741 C40.2917003,18.8924691 40.662734,19.1137037 40.7881478,19.1811111 C40.9539196,19.2735802 41.3696509,19.4749383 41.8153253,19.4749383 C41.8448344,19.4749383 41.8713058,19.4749383 41.8973433,19.4740741 C41.9541917,19.4740741 42.1824534,19.4706173 43.0690287,19.4706173 C44.465938,19.4706173 46.5632549,19.4749383 46.5632549,19.4749383 L48.4566117,19.4783951 L45.2388164,14.2694444 C45.4874741,14.0616049 45.7161697,13.8369136 45.9309787,13.6005556 C46.1982966,14.9737654 46.8162521,16.2398148 47.7609777,17.2928395 C49.2707161,18.9775926 51.4057872,19.9048765 53.779535,19.9048765 C56.5629388,19.9048765 59.7060933,18.3380864 61.611167,16.0440741 C61.8719755,16.4878395 62.1748779,16.9078395 62.5242137,17.2984568 C64.0296124,18.9814815 66.170325,19.9048765 68.5471106,19.9048765 C73.2811535,19.9048765 77.5755975,16.074321 78.1202142,11.3657407 C78.3975131,8.98790123 77.7101243,6.74444444 76.1904049,5.045 Z" id="Fill-1" fill="#5B5B5B"></path>
                            <g id="Group-5" transform="translate(93.300874, 2.207191)">
                                <mask id="mask-2" fill="white">
                                    <use xlink:href="#path-1"></use>
                                </mask>
                                <g id="Clip-4"></g>
                                <path d="M56.1860466,0.425617284 L52.9200821,0.425617284 C52.3312017,0.425617284 51.5301161,0.712530864 51.0380082,1.51537037 C50.7789355,1.93623457 50.518127,2.3791358 50.518127,2.3791358 L44.7204541,11.8066667 C44.8844901,11.2159877 45.0064322,10.5846914 45.0841106,9.90932099 L46.1859288,0.425617284 L39.722999,0.425617284 L38.6676142,9.53037037 C38.5348232,10.7048148 38.0305645,11.4316049 37.6248142,11.4316049 L37.6226444,11.4316049 C37.6226444,11.4316049 37.6035503,11.4220988 37.5610224,11.3784568 C37.4039298,11.1995679 37.2667992,10.7722222 37.330157,10.2251852 L37.5358529,8.46740741 L31.4079383,8.46740741 L31.2504117,9.86092593 C31.2018084,10.263642 31.1827143,10.657716 31.1848841,11.0435802 L27.3131148,0.425617284 L24.0514898,0.425617284 C23.4639113,0.425617284 22.6615238,0.712530864 22.1672461,1.51709877 C21.9125131,1.93623457 21.6508367,2.3791358 21.6508367,2.3791358 L16.1083308,11.3853704 C16.2281031,10.3116049 16.0475767,9.26246914 15.5819403,8.31141975 C15.8852766,7.65506173 16.0783877,6.95765432 16.1621415,6.23432099 C16.3457056,4.63641975 15.9317101,3.22 14.9583433,2.1341358 C13.9888821,1.0482716 12.5394639,0.425617284 10.9884996,0.425617284 L2.27636774,0.425617284 L0.341784969,17.1547531 L9.81594627,17.1547531 C10.9589905,17.1547531 12.1606189,16.787037 13.2047208,16.1047531 L12.5607278,17.1547531 L18.6400392,17.1547531 L18.7003593,17.1547531 C18.9403378,17.1547531 19.4155213,17.115 19.8833275,16.8293827 C20.368926,16.5333951 20.6306024,16.1056173 20.7308466,15.9064198 L21.105352,15.2962963 L25.7317735,15.2962963 L26.4408601,17.1547531 L33.4162938,17.1590741 L32.8677715,15.6605556 C33.9839103,16.8708642 35.5131767,17.5099383 37.3006479,17.5099383 C39.2673435,17.5099383 40.9220237,16.9559877 42.1991607,15.9042593 L41.4310559,17.1547531 L47.5090654,17.1547531 L47.5698194,17.1547531 C47.809364,17.1547531 48.2849815,17.1137037 48.7536556,16.8293827 C49.2375183,16.5333951 49.4987607,16.1056173 49.5968352,15.9094444 L49.9756801,15.2962963 L54.6003657,15.2962963 L55.3090184,17.1547531 L62.2870559,17.1590741 L56.1860466,0.425617284 Z" id="Fill-3" fill="#5B5B5B" mask="url(#mask-2)"></path>
                            </g>
                            <path d="M138.248548,3.62948765 L133.909841,3.62948765 L132.965549,11.8026358 C132.769834,13.496463 131.93273,14.6367716 130.88776,14.6367716 C130.554915,14.6367716 130.265465,14.5006605 130.023317,14.2336235 C129.623642,13.7864012 129.438342,13.046216 129.528605,12.2567716 L129.598472,11.6704136 L125.598252,11.6704136 L125.546177,12.136216 C125.314009,14.1143642 125.774872,15.8574506 126.84154,17.049179 C127.758058,18.0741173 129.038667,18.6133765 130.549273,18.6133765 C134.397609,18.6133765 136.786545,16.2450432 137.285162,11.9430679 L138.248548,3.62948765 Z" id="Fill-6" fill="#C4C4C4"></path>
                            <path d="M104.257044,8.08338889 C104.197591,8.59456173 103.772747,8.92382099 103.43209,8.93462346 L100.18522,8.93462346 L100.37269,7.33369753 L103.740634,7.33369753 C103.911613,7.33369753 104.02748,7.42270988 104.094744,7.49789506 C104.222761,7.64178395 104.282213,7.85480864 104.257044,8.08338889 M104.240119,13.4954259 C104.175894,14.0325247 103.737596,14.4711049 103.25547,14.4711049 L99.5460004,14.4711049 L99.7582057,12.6411667 L103.587013,12.6411667 C103.779256,12.6411667 103.951538,12.7120309 104.069574,12.8442531 C104.21061,13.0011049 104.270496,13.2301173 104.240119,13.4954259 M107.421028,4.98740123 C106.64598,4.1236358 105.485144,3.62931481 104.23578,3.62931481 L96.4649018,3.62931481 L94.7742032,18.2593148 L103.064094,18.2593148 C105.369277,18.2593148 107.960003,16.4596235 108.307169,13.4470309 C108.429112,12.3896852 108.197812,11.3742531 107.631932,10.4880185 C108.025531,9.79709259 108.271585,9.05517901 108.360112,8.26746296 C108.511563,6.97678395 108.185227,5.84295679 107.421028,4.98740123" id="Fill-8" fill="#C4C4C4"></path>
                            <path d="M118.35346,12.6955679 L116.030486,12.6955679 L117.457772,10.136679 L118.35346,12.6955679 Z M107.692425,18.2592716 L111.911795,18.2592716 C111.911795,18.2592716 112.258961,18.2800123 112.584429,18.086 C112.906859,17.8880988 113.051801,17.556679 113.051801,17.556679 L113.76002,16.3986543 L119.707842,16.3986543 L120.416929,18.2592716 L125.157047,18.2605679 L119.823709,3.6292716 L117.303717,3.6292716 C117.303717,3.6292716 116.685762,3.61371605 116.317766,4.21649383 C116.063466,4.63649383 115.798318,5.08069136 115.798318,5.08069136 L107.692425,18.2592716 Z" id="Fill-10" fill="#C4C4C4"></path>
                            <path d="M147.221792,12.6955679 L144.900119,12.6955679 L146.32784,10.136679 L147.221792,12.6955679 Z M136.562059,18.2592716 L140.780126,18.2592716 C140.780126,18.2592716 141.127292,18.2800123 141.451025,18.086 C141.775191,17.8880988 141.920133,17.556679 141.920133,17.556679 L142.628786,16.3986543 L148.576608,16.3986543 L149.28526,18.2592716 L154.025379,18.2605679 L148.69421,3.6292716 L146.172483,3.6292716 C146.172483,3.6292716 145.556697,3.61371605 145.188267,4.21649383 C144.931798,4.63649383 144.66665,5.08069136 144.66665,5.08069136 L136.562059,18.2592716 Z" id="Fill-12" fill="#C4C4C4"></path>
                            <path d="M11.4369513,13.2924259 C10.2227381,14.2270556 9.42859576,14.5403272 8.28858926,14.5403272 C7.37163695,14.5403272 6.55145718,14.1885988 5.980803,13.5521173 C5.40103571,12.9061296 5.14283096,12.0432284 5.25001848,11.1176728 C5.4756764,9.15162346 7.25750612,7.55026543 9.21942821,7.55026543 C10.305624,7.55026543 11.1613883,7.92619136 11.9971905,8.77137654 L12.288376,9.0677963 L15.7626402,6.99458642 L15.4827376,6.54088272 C14.2559396,4.5519321 12.0496994,3.36668519 9.58221673,3.36668519 C5.36545119,3.36668519 1.54011536,6.78804321 1.0540829,10.9971173 C0.814538327,13.0664383 1.40428664,15.0126111 2.71527241,16.4744012 C4.01454132,17.9262531 5.86580424,18.7265 7.92493283,18.7265 C10.3737553,18.7265 12.8143326,17.5715 14.455994,15.6356975 L14.8287635,15.1945247 L11.7441933,13.0586605 L11.4369513,13.2924259 Z" id="Fill-14" fill="#C4C4C4"></path>
                            <path d="M25.0477262,12.8065309 L22.7238835,12.8065309 L24.1507359,10.2485062 L25.0477262,12.8065309 Z M14.3853891,18.3702346 L18.6043244,18.3702346 C18.6043244,18.3702346 18.9510565,18.3948642 19.2760907,18.1986914 C19.6011249,18.0007901 19.7460668,17.6698025 19.7460668,17.6698025 L20.4525497,16.5130741 L26.4012398,16.5130741 L27.1090246,18.3702346 L31.8513127,18.3732593 L26.5166725,3.74153086 L23.9940773,3.74153086 C23.9940773,3.74153086 23.3800273,3.72597531 23.0098615,4.32875309 C22.7555624,4.74961728 22.4904143,5.19338272 22.4904143,5.19338272 L14.3853891,18.3702346 Z" id="Fill-16" fill="#C4C4C4"></path>
                            <path d="M38.4736786,8.13467901 L40.7940496,8.13467901 C41.1759322,8.13467901 41.5144191,8.279 41.750926,8.54301235 C41.9917724,8.80788889 42.0972241,9.16825926 42.0507907,9.55412346 C41.9457729,10.4693086 41.1043292,10.9480741 40.3266773,10.9480741 L38.1495123,10.9480741 L38.4736786,8.13467901 Z M46.4780256,9.67597531 C46.6702688,7.99122222 46.2124436,6.389 45.2199827,5.27850617 C44.3329734,4.28683951 43.0766663,3.74153086 41.6832286,3.74153086 L34.5854189,3.74153086 L32.8934184,18.3702346 L37.2959178,18.3857901 L37.6804041,14.9873333 L39.2895188,14.9873333 C39.2895188,14.9873333 40.7267862,17.6542469 40.8678224,17.8685679 C41.0066888,18.0824568 41.2431957,18.2069012 41.2431957,18.2069012 C41.2431957,18.2069012 41.556513,18.3844938 41.7904161,18.3702346 C41.7934538,18.3615926 46.5110064,18.3702346 46.5110064,18.3702346 L43.7783757,13.9412222 C45.3150194,12.9927654 46.2662543,11.4968395 46.4780256,9.67597531 Z" id="Fill-18" fill="#C4C4C4"></path>
                            <path d="M60.4567965,11.1133519 C60.5283995,10.5062531 60.6690017,9.91903086 60.8690562,9.35125309 L55.7188479,9.35125309 C55.7188479,9.35125309 55.0475156,9.40137654 54.8353104,9.64594444 C54.614426,9.8006358 54.3358252,10.2750802 54.3358252,10.2750802 L52.6733338,13.0193395 L57.4021693,13.0167469 L56.6470831,13.6493395 C55.9011101,14.2754506 55.0015161,14.6168086 54.0889034,14.6168086 C53.1654417,14.6168086 52.3383186,14.2620556 51.7607211,13.6177963 C51.1844255,12.9718086 50.9227491,12.1089074 51.0286347,11.1932901 C51.2516889,9.25835185 53.0790841,7.62588272 55.0184404,7.62588272 C56.1293718,7.62588272 56.9087596,7.94088272 57.6239216,8.67804321 L57.9129373,8.97878395 L61.4188804,6.90341358 L61.1316005,6.44452469 C59.8961233,4.4806358 57.9077298,3.44100617 55.380795,3.44100617 C51.1549164,3.44100617 47.3209014,6.86452469 46.8331331,11.0740309 C46.5935885,13.1329815 47.1863745,15.0765617 48.4947566,16.5400802 C49.8005348,17.9975494 51.6600429,18.8016852 53.7269828,18.8016852 C56.1098437,18.8016852 59.2412814,17.3956358 61.0478467,14.9339691 L61.0400355,14.9339691 C60.5093054,13.7841543 60.3001378,12.4779198 60.4567965,11.1133519" id="Fill-20" fill="#C4C4C4"></path>
                            <path d="M65.7964706,11.1931173 C66.0234304,9.2266358 67.8139393,7.62570988 69.7858424,7.62570988 C70.6967193,7.62570988 71.5134274,7.97873457 72.0866853,8.61608025 C72.6673205,9.26854938 72.9298649,10.1396605 72.8235453,11.073858 C72.5996232,13.0273765 70.8182274,14.6170679 68.8563053,14.6170679 C67.9263343,14.6170679 67.0983433,14.2623148 66.5229156,13.6210802 C65.9474878,12.9794136 65.6888491,12.1165123 65.7964706,11.1931173 M75.3504801,5.6907716 C74.0507772,4.24194444 72.2042878,3.44083333 70.147329,3.44083333 C65.9205825,3.44083333 62.0865675,6.86478395 61.5996671,11.073858 C61.3609905,13.1397222 61.9520406,15.0824383 63.2578189,16.5442284 C64.5618614,18.0008333 66.4187657,18.8019444 68.4935168,18.8019444 C72.7098484,18.8019444 76.5334484,15.3883642 77.0190469,11.1922531 C77.2598933,9.11688272 76.6666734,7.1620679 75.3504801,5.6907716" id="Fill-22" fill="#C4C4C4"></path>
                            <g id="Group-26" transform="translate(76.810487, 0.046698)">
                                <mask id="mask-4" fill="white">
                                    <use xlink:href="#path-3"></use>
                                </mask>
                                <g id="Clip-25"></g>
                                <polygon id="Fill-24" fill="#5B5B5B" mask="url(#mask-4)" points="2.52958197 16.4178951 0.979919551 4.5762284 9.48201593 1.26246296 9.4659595 0.397833333 0.0521183021 3.99721605 1.73760944 16.7385123 1.75106212 16.8439444 9.46378971 23.2813519 9.4659595 23.2804877 9.44946911 22.3402407"></polygon>
                            </g>
                            <g id="Group-29" transform="translate(85.923596, 0.046698)">
                                <mask id="mask-6" fill="white">
                                    <use xlink:href="#path-5"></use>
                                </mask>
                                <g id="Clip-28"></g>
                                <polygon id="Fill-27" fill="#161616" mask="url(#mask-6)" points="9.76573738 4.02776543 0.35536784 0.397703704 0.35363201 0.397703704 0.369254482 1.26233333 0.3731601 1.26233333 8.87135086 4.67332099 7.50698831 16.3814691 0.339745368 22.3418395 0.336273708 22.339679 0.35363201 23.2799259 8.2217164 16.8057901"></polygon>
                            </g>
                            <polygon id="Stroke-30" stroke="#070300" stroke-width="0.196" points="86.2757521 9.59554321 86.2757521 9.64332099 86.2790997 9.64332099 86.2790997 9.58998765"></polygon>
                            <polygon id="Fill-32" fill="#5B5B5B" points="86.2592617 9.61659259 86.3016655 9.63992593 86.3016655 9.59214815"></polygon>
                            <polygon id="Fill-34" fill="#5B5B5B" points="79.9897467 16.1717593 86.2756219 21.4148457 86.2756219 9.6107716 86.2586975 9.60169753 86.2756219 9.59219136 86.2756219 9.59003086 78.5845922 5.23447531"></polygon>
                            <polygon id="Fill-36" fill="#161616" points="86.2770539 9.59003086 86.2770539 9.6107716 86.2770539 21.4152778 92.8120207 16.1108333 93.9559328 5.31614198 93.9667818 5.22108025"></polygon>
                            <polygon id="Fill-38" fill="#C4C4C4" points="93.9666516 5.22095062 86.2764898 2.17422222 86.2678106 2.17811111 86.1380573 2.22737037 78.5850261 5.23434568 86.2756219 9.58990123 86.2764898 9.58990123"></polygon>
                            <polygon id="Fill-40" fill="#7B7A7B" points="0.692249089 31.5521852 0.692249089 27.1162593 3.72083885 27.1162593 3.72083885 28.0884815 1.787124 28.0884815 1.787124 28.8295309 3.4392004 28.8295309 3.4392004 29.801321 1.787124 29.801321 1.787124 30.5803951 3.72083885 30.5803951 3.72083885 31.5521852"></polygon>
                            <path d="M6.39388719,31.5897346 C5.71170592,31.5897346 5.15537233,31.4652901 4.70405648,31.0046728 L5.40533189,30.3064012 C5.63663126,30.5367099 6.04368345,30.6179444 6.40039655,30.6179444 C6.83175036,30.6179444 7.03831416,30.4744877 7.03831416,30.2191173 C7.03831416,30.1132531 7.01357858,30.0259691 6.95108869,29.9576975 C6.89424025,29.9015247 6.80050542,29.8578827 6.65643151,29.8388704 L6.1187581,29.7641173 C5.72429069,29.7083765 5.42399206,29.5778827 5.22393763,29.3722037 C5.01693988,29.1600432 4.9175636,28.8610309 4.9175636,28.481216 C4.9175636,27.6710309 5.53031166,27.0790556 6.5440365,27.0790556 C7.18195411,27.0790556 7.66408095,27.2281296 8.0459636,27.6083765 L7.35727296,28.2941173 C7.07606846,28.0136852 6.70677059,28.0322654 6.51279156,28.0322654 C6.13134287,28.0322654 5.97511815,28.2500432 5.97511815,28.4440556 C5.97511815,28.4997963 5.99334437,28.5805988 6.06190966,28.6488704 C6.1187581,28.7050432 6.21292689,28.7616481 6.36871765,28.7802284 L6.90682502,28.8545494 C7.30736784,28.9111543 7.5950817,29.0355988 7.78298532,29.2222654 C8.02079406,29.4530062 8.11452889,29.7826975 8.11452889,30.1944877 C8.11452889,31.0975741 7.33253738,31.5897346 6.39388719,31.5897346" id="Fill-42" fill="#7B7A7B"></path>
                            <path d="M11.1758824,28.0945741 L10.5561911,28.0945741 L10.5561911,28.9916111 L11.1758824,28.9916111 C11.4761811,28.9916111 11.6514999,28.7738333 11.6514999,28.5430926 C11.6514999,28.312784 11.4761811,28.0945741 11.1758824,28.0945741 M11.2262215,29.9703148 L10.5561911,29.9703148 L10.5561911,31.5522284 L9.46175011,31.5522284 L9.46175011,27.1163025 L11.2262215,27.1163025 C12.2147768,27.1163025 12.7463748,27.8150062 12.7463748,28.5430926 C12.7463748,29.2724753 12.2147768,29.9703148 11.2262215,29.9703148" id="Fill-44" fill="#7B7A7B"></path>
                            <polygon id="Fill-46" fill="#7B7A7B" points="14.0118818 31.5521852 14.0118818 27.1162593 17.0404716 27.1162593 17.0404716 28.0884815 15.1067568 28.0884815 15.1067568 28.8295309 16.7588332 28.8295309 16.7588332 29.801321 15.1067568 29.801321 15.1067568 30.5803951 17.0404716 30.5803951 17.0404716 31.5521852"></polygon>
                            <path d="M19.9891698,31.5897346 C19.4697226,31.5897346 19.0756891,31.4155988 18.7506549,31.0915247 C18.2806789,30.6244259 18.2993391,30.0009074 18.2993391,29.334179 C18.2993391,28.6674506 18.2806789,28.0447963 18.7506549,27.5776975 C19.0756891,27.2536235 19.4697226,27.0790556 19.9891698,27.0790556 C20.8340851,27.0790556 21.5162664,27.5465864 21.6790005,28.5244259 L20.5645975,28.5244259 C20.4955983,28.275537 20.3584677,28.0512778 19.9956792,28.0512778 C19.7951908,28.0512778 19.6454754,28.1320802 19.5638914,28.2379444 C19.4636472,28.3688704 19.3946479,28.5244259 19.3946479,29.334179 C19.3946479,30.1439321 19.4636472,30.3003519 19.5638914,30.4308457 C19.6454754,30.5367099 19.7951908,30.6179444 19.9956792,30.6179444 C20.3584677,30.6179444 20.4955983,30.3936852 20.5645975,30.1439321 L21.6790005,30.1439321 C21.5162664,31.1230679 20.8340851,31.5897346 19.9891698,31.5897346" id="Fill-48" fill="#7B7A7B"></path>
                            <mask id="mask-8" fill="white">
                                <use xlink:href="#path-7"></use>
                            </mask>
                            <g id="Clip-51"></g>
                            <polygon id="Fill-50" fill="#7B7A7B" mask="url(#mask-8)" points="22.8812799 31.5523148 23.9971708 31.5523148 23.9971708 27.1163889 22.8812799 27.1163889"></polygon>
                            <path d="M27.1244735,28.7988086 L26.7243646,29.9823272 L27.4998467,29.9823272 L27.1244735,28.7988086 Z M27.9941244,31.552142 L27.7875606,30.8923272 L26.4175566,30.8923272 L26.198408,31.552142 L25.053628,31.552142 L26.6740255,27.116216 L27.5189409,27.116216 L29.1397723,31.552142 L27.9941244,31.552142 Z" id="Fill-52" fill="#7B7A7B" mask="url(#mask-8)"></path>
                            <polygon id="Fill-53" fill="#7B7A7B" mask="url(#mask-8)" points="30.2174625 31.5521852 30.2174625 27.1162593 31.3123374 27.1162593 31.3123374 30.5803951 33.1831284 30.5803951 33.1831284 31.5521852"></polygon>
                            <polygon id="Fill-54" fill="#7B7A7B" mask="url(#mask-8)" points="34.4488524 31.5523148 35.5647433 31.5523148 35.5647433 27.1163889 34.4488524 27.1163889"></polygon>
                            <path d="M38.3414517,31.5897346 C37.6592704,31.5897346 37.1029368,31.4652901 36.651621,31.0046728 L37.3528964,30.3064012 C37.5841958,30.5367099 37.9912479,30.6179444 38.347961,30.6179444 C38.7793149,30.6179444 38.9858787,30.4744877 38.9858787,30.2191173 C38.9858787,30.1132531 38.9611431,30.0259691 38.8986532,29.9576975 C38.8418047,29.9015247 38.7480699,29.8578827 38.603996,29.8388704 L38.0663226,29.7641173 C37.6718552,29.7083765 37.3715566,29.5778827 37.1715021,29.3722037 C36.9649383,29.1600432 36.8651281,28.8610309 36.8651281,28.481216 C36.8651281,27.6710309 37.4778762,27.0790556 38.491601,27.0790556 C39.1295186,27.0790556 39.6116454,27.2281296 39.9935281,27.6083765 L39.3048375,28.2941173 C39.023633,28.0136852 38.6543351,28.0322654 38.4603561,28.0322654 C38.0789074,28.0322654 37.9222487,28.2500432 37.9222487,28.4440556 C37.9222487,28.4997963 37.9409089,28.5805988 38.0094742,28.6488704 C38.0663226,28.7050432 38.1604914,28.7616481 38.3162821,28.7802284 L38.8543895,28.8545494 C39.2549323,28.9111543 39.5426462,29.0355988 39.7305498,29.2222654 C39.9683586,29.4530062 40.0620934,29.7826975 40.0620934,30.1944877 C40.0620934,31.0975741 39.2801019,31.5897346 38.3414517,31.5897346" id="Fill-55" fill="#7B7A7B" mask="url(#mask-8)"></path>
                            <polygon id="Fill-56" fill="#7B7A7B" mask="url(#mask-8)" points="43.3362163 28.0886543 43.3362163 31.552358 42.2413414 31.552358 42.2413414 28.0886543 41.1460326 28.0886543 41.1460326 27.1168642 44.4310912 27.1168642 44.4310912 28.0886543"></polygon>
                            <path d="M46.9415791,28.7988086 L46.5414702,29.9823272 L47.3169524,29.9823272 L46.9415791,28.7988086 Z M47.81123,31.552142 L47.6046662,30.8923272 L46.2346622,30.8923272 L46.0155137,31.552142 L44.8707336,31.552142 L46.4911311,27.116216 L47.3360465,27.116216 L48.956444,31.552142 L47.81123,31.552142 Z" id="Fill-57" fill="#7B7A7B" mask="url(#mask-8)"></path>
                            <path d="M51.3046751,31.5897346 C50.6224938,31.5897346 50.0657263,31.4652901 49.6148444,31.0046728 L50.3161198,30.3064012 C50.5474192,30.5367099 50.9540374,30.6179444 51.3111845,30.6179444 C51.7425383,30.6179444 51.9491021,30.4744877 51.9491021,30.2191173 C51.9491021,30.1132531 51.9239325,30.0259691 51.8614426,29.9576975 C51.8050282,29.9015247 51.7112933,29.8578827 51.5672194,29.8388704 L51.0291121,29.7641173 C50.6350786,29.7083765 50.33478,29.5778827 50.1342916,29.3722037 C49.9277278,29.1600432 49.8279176,28.8610309 49.8279176,28.481216 C49.8279176,27.6710309 50.4410996,27.0790556 51.4548244,27.0790556 C52.092742,27.0790556 52.5748689,27.2281296 52.9567515,27.6083765 L52.2680609,28.2941173 C51.9868564,28.0136852 51.6175585,28.0322654 51.4235795,28.0322654 C51.0416968,28.0322654 50.8854721,28.2500432 50.8854721,28.4440556 C50.8854721,28.4997963 50.9041323,28.5805988 50.9726976,28.6488704 C51.0291121,28.7050432 51.1232808,28.7616481 51.2795056,28.7802284 L51.8176129,28.8545494 C52.2177218,28.9111543 52.5058696,29.0355988 52.6933393,29.2222654 C52.931148,29.4530062 53.0253168,29.7826975 53.0253168,30.1944877 C53.0253168,31.0975741 52.2433253,31.5897346 51.3046751,31.5897346" id="Fill-58" fill="#7B7A7B" mask="url(#mask-8)"></path>
                            <polygon id="Fill-59" fill="#7B7A7B" mask="url(#mask-8)" points="56.3875765 31.5521852 56.3875765 27.1162593 59.4161663 27.1162593 59.4161663 28.0884815 57.4824514 28.0884815 57.4824514 28.8295309 59.1345278 28.8295309 59.1345278 29.801321 57.4824514 29.801321 57.4824514 30.5803951 59.4161663 30.5803951 59.4161663 31.5521852"></polygon>
                            <polygon id="Fill-60" fill="#7B7A7B" mask="url(#mask-8)" points="63.3408784 31.5521852 61.914026 29.3216914 61.914026 31.5521852 60.8191511 31.5521852 60.8191511 27.1162593 61.7768954 27.1162593 63.2033139 29.3467531 63.2033139 27.1162593 64.2981888 27.1162593 64.2981888 31.5521852"></polygon>
                            <path d="M69.3876429,31.5897346 C68.8681958,31.5897346 68.4741623,31.4155988 68.1486941,31.0915247 C67.6791521,30.6244259 67.6978122,30.0009074 67.6978122,29.334179 C67.6978122,28.6674506 67.6791521,28.0447963 68.1486941,27.5776975 C68.4741623,27.2536235 68.8681958,27.0790556 69.3876429,27.0790556 C70.2325583,27.0790556 70.9147396,27.5465864 71.0770397,28.5244259 L69.9630707,28.5244259 C69.8940714,28.275537 69.7569408,28.0512778 69.3941523,28.0512778 C69.1936639,28.0512778 69.0439486,28.1320802 68.9623645,28.2379444 C68.8621203,28.3688704 68.7931211,28.5244259 68.7931211,29.334179 C68.7931211,30.1439321 68.8621203,30.3003519 68.9623645,30.4308457 C69.0439486,30.5367099 69.1936639,30.6179444 69.3941523,30.6179444 C69.7569408,30.6179444 69.8940714,30.3936852 69.9630707,30.1439321 L71.0770397,30.1439321 C70.9147396,31.1230679 70.2325583,31.5897346 69.3876429,31.5897346" id="Fill-61" fill="#7B7A7B" mask="url(#mask-8)"></path>
                            <path d="M73.8380512,28.7988086 L73.4375084,29.9823272 L74.2134245,29.9823272 L73.8380512,28.7988086 Z M74.7077022,31.552142 L74.5011384,30.8923272 L73.1307004,30.8923272 L72.9119858,31.552142 L71.7672058,31.552142 L73.3876033,27.116216 L74.2325187,27.116216 L75.8524822,31.552142 L74.7077022,31.552142 Z" id="Fill-62" fill="#7B7A7B" mask="url(#mask-8)"></path>
                            <path d="M79.0328269,28.3376296 C78.9325827,28.1876914 78.7824334,28.0887407 78.5073043,28.0887407 L78.0256114,28.0887407 L78.0256114,30.5802222 L78.5073043,30.5802222 C78.7824334,30.5802222 78.9325827,30.4812716 79.0328269,30.3313333 C79.1200524,30.2068889 79.1517313,30.0884938 79.1517313,29.3344815 C79.1517313,28.5869506 79.1200524,28.4625062 79.0328269,28.3376296 M79.7835735,31.1168889 C79.4767655,31.4219506 79.0449777,31.5520123 78.582379,31.5520123 L76.9307365,31.5520123 L76.9307365,27.1165185 L78.582379,27.1165185 C79.0449777,27.1165185 79.4767655,27.2474444 79.7835735,27.5525062 C80.3030207,28.0697284 80.2470401,28.636642 80.2470401,29.3344815 C80.2470401,30.0327531 80.3030207,30.5992346 79.7835735,31.1168889" id="Fill-63" fill="#7B7A7B" mask="url(#mask-8)"></path>
                            <polygon id="Fill-64" fill="#7B7A7B" mask="url(#mask-8)" points="81.631061 31.5521852 81.631061 27.1162593 84.6596507 27.1162593 84.6596507 28.0884815 82.7259359 28.0884815 82.7259359 28.8295309 84.3780123 28.8295309 84.3780123 29.801321 82.7259359 29.801321 82.7259359 30.5803951 84.6596507 30.5803951 84.6596507 31.5521852"></polygon>
                            <polygon id="Fill-65" fill="#7B7A7B" mask="url(#mask-8)" points="88.5841459 31.5521852 87.1577274 29.3216914 87.1577274 31.5521852 86.0624185 31.5521852 86.0624185 27.1162593 87.0201628 27.1162593 88.4470153 29.3467531 88.4470153 27.1162593 89.5418902 27.1162593 89.5418902 31.5521852"></polygon>
                            <path d="M92.6906428,28.7988086 L92.2905339,29.9823272 L93.0660161,29.9823272 L92.6906428,28.7988086 Z M93.5607277,31.552142 L93.3537299,30.8923272 L91.9837259,30.8923272 L91.7645774,31.552142 L90.6197974,31.552142 L92.2401949,27.116216 L93.0851102,27.116216 L94.7059417,31.552142 L93.5607277,31.552142 Z" id="Fill-66" fill="#7B7A7B" mask="url(#mask-8)"></path>
                            <path d="M97.0539558,31.5897346 C96.3717745,31.5897346 95.815007,31.4652901 95.3641251,31.0046728 L96.0654005,30.3064012 C96.2966999,30.5367099 96.7033181,30.6179444 97.0600312,30.6179444 C97.491819,30.6179444 97.6979488,30.4744877 97.6979488,30.2191173 C97.6979488,30.1132531 97.6732132,30.0259691 97.6107233,29.9576975 C97.5538749,29.9015247 97.460574,29.8578827 97.3160662,29.8388704 L96.7783928,29.7641173 C96.3843593,29.7083765 96.0840607,29.5778827 95.8840062,29.3722037 C95.6770085,29.1600432 95.5771983,28.8610309 95.5771983,28.481216 C95.5771983,27.6710309 96.1903803,27.0790556 97.2041051,27.0790556 C97.8420227,27.0790556 98.3241496,27.2281296 98.7055983,27.6083765 L98.0173416,28.2941173 C97.7357031,28.0136852 97.3668392,28.0322654 97.1724262,28.0322654 C96.7914115,28.0322654 96.6343189,28.2500432 96.6343189,28.4440556 C96.6343189,28.4997963 96.653413,28.5805988 96.7219783,28.6488704 C96.7783928,28.7050432 96.8721276,28.7616481 97.0287863,28.7802284 L97.5673276,28.8545494 C97.9670025,28.9111543 98.2555843,29.0355988 98.44262,29.2222654 C98.6804287,29.4530062 98.7741635,29.7826975 98.7741635,30.1944877 C98.7741635,31.0975741 97.992172,31.5897346 97.0539558,31.5897346" id="Fill-67" fill="#7B7A7B" mask="url(#mask-8)"></path>
                            <path d="M104.239251,28.3376296 C104.139007,28.1876914 103.988858,28.0887407 103.713295,28.0887407 L103.232036,28.0887407 L103.232036,30.5802222 L103.713295,30.5802222 C103.988858,30.5802222 104.139007,30.4812716 104.239251,30.3313333 C104.326477,30.2068889 104.358156,30.0884938 104.358156,29.3344815 C104.358156,28.5869506 104.326477,28.4625062 104.239251,28.3376296 M104.989998,31.1168889 C104.68319,31.4219506 104.251402,31.5520123 103.788803,31.5520123 L102.136293,31.5520123 L102.136293,27.1165185 L103.788803,27.1165185 C104.251402,27.1165185 104.68319,27.2474444 104.989998,27.5525062 C105.509445,28.0697284 105.453465,28.636642 105.453465,29.3344815 C105.453465,30.0327531 105.509445,30.5992346 104.989998,31.1168889" id="Fill-68" fill="#7B7A7B" mask="url(#mask-8)"></path>
                            <polygon id="Fill-69" fill="#7B7A7B" mask="url(#mask-8)" points="106.837485 31.5521852 106.837485 27.1162593 109.866075 27.1162593 109.866075 28.0884815 107.93236 28.0884815 107.93236 28.8295309 109.584437 28.8295309 109.584437 29.801321 107.93236 29.801321 107.93236 30.5803951 109.866075 30.5803951 109.866075 31.5521852"></polygon>
                            <path d="M114.55503,31.5897346 C113.872849,31.5897346 113.316081,31.4652901 112.865199,31.0046728 L113.566041,30.3064012 C113.797774,30.5367099 114.204392,30.6179444 114.561105,30.6179444 C114.992893,30.6179444 115.199023,30.4744877 115.199023,30.2191173 C115.199023,30.1132531 115.174287,30.0259691 115.111798,29.9576975 C115.054949,29.9015247 114.961648,29.8578827 114.81714,29.8388704 L114.279033,29.7641173 C113.885433,29.7083765 113.585135,29.5778827 113.384646,29.3722037 C113.178083,29.1600432 113.078272,28.8610309 113.078272,28.481216 C113.078272,27.6710309 113.69102,27.0790556 114.705179,27.0790556 C115.343097,27.0790556 115.825224,27.2281296 116.206672,27.6083765 L115.517982,28.2941173 C115.236343,28.0136852 114.867913,28.0322654 114.6735,28.0322654 C114.292486,28.0322654 114.135393,28.2500432 114.135393,28.4440556 C114.135393,28.4997963 114.154487,28.5805988 114.223052,28.6488704 C114.279033,28.7050432 114.373202,28.7616481 114.52986,28.7802284 L115.067968,28.8545494 C115.468077,28.9111543 115.756224,29.0355988 115.943694,29.2222654 C116.181503,29.4530062 116.275238,29.7826975 116.275238,30.1944877 C116.275238,31.0975741 115.493246,31.5897346 114.55503,31.5897346" id="Fill-70" fill="#7B7A7B" mask="url(#mask-8)"></path>
                            <path d="M119.230272,31.5897346 C118.304206,31.5897346 117.54695,30.9670802 117.54695,29.9952901 L117.54695,27.1166481 L118.642259,27.1166481 L118.642259,29.9697963 C118.642259,30.3807222 118.867049,30.6179444 119.230272,30.6179444 C119.593494,30.6179444 119.831303,30.3807222 119.831303,29.9697963 L119.831303,27.1166481 L120.925744,27.1166481 L120.925744,29.9952901 C120.925744,30.9670802 120.156337,31.5897346 119.230272,31.5897346" id="Fill-71" fill="#7B7A7B" mask="url(#mask-8)"></path>
                            <polygon id="Fill-72" fill="#7B7A7B" mask="url(#mask-8)" points="125.438729 31.5521852 125.438729 29.4279877 124.806887 30.5246543 124.106045 30.5246543 123.474203 29.4279877 123.474203 31.5521852 122.378894 31.5521852 122.378894 27.1162593 123.455543 27.1162593 124.456249 29.0732346 125.457823 27.1162593 126.533604 27.1162593 126.533604 31.5521852"></polygon>
                            <polygon id="Fill-73" fill="#7B7A7B" mask="url(#mask-8)" points="128.06261 31.5523148 129.178501 31.5523148 129.178501 27.1163889 128.06261 27.1163889"></polygon>
                            <polygon id="Fill-74" fill="#7B7A7B" mask="url(#mask-8)" points="133.207177 31.5521852 131.780324 29.3216914 131.780324 31.5521852 130.685015 31.5521852 130.685015 27.1162593 131.64276 27.1162593 133.069612 29.3467531 133.069612 27.1162593 134.164487 27.1162593 134.164487 31.5521852"></polygon>
                            <polygon id="Fill-75" fill="#7B7A7B" mask="url(#mask-8)" points="135.692885 31.5523148 136.808776 31.5523148 136.808776 27.1163889 135.692885 27.1163889"></polygon>
                            <path d="M139.586005,31.5897346 C138.903824,31.5897346 138.347057,31.4652901 137.896175,31.0046728 L138.597016,30.3064012 C138.828749,30.5367099 139.235368,30.6179444 139.592081,30.6179444 C140.023869,30.6179444 140.229998,30.4744877 140.229998,30.2191173 C140.229998,30.1132531 140.205263,30.0259691 140.142773,29.9576975 C140.085924,29.9015247 139.992624,29.8578827 139.848116,29.8388704 L139.310008,29.7641173 C138.916409,29.7083765 138.61611,29.5778827 138.416056,29.3722037 C138.209058,29.1600432 138.109248,28.8610309 138.109248,28.481216 C138.109248,27.6710309 138.72243,27.0790556 139.736155,27.0790556 C140.374072,27.0790556 140.856199,27.2281296 141.237648,27.6083765 L140.549391,28.2941173 C140.267753,28.0136852 139.898889,28.0322654 139.704476,28.0322654 C139.323461,28.0322654 139.166368,28.2500432 139.166368,28.4440556 C139.166368,28.4997963 139.185463,28.5805988 139.254028,28.6488704 C139.310008,28.7050432 139.404177,28.7616481 139.560836,28.7802284 L140.099377,28.8545494 C140.499052,28.9111543 140.7872,29.0355988 140.97467,29.2222654 C141.212478,29.4530062 141.306213,29.7826975 141.306213,30.1944877 C141.306213,31.0975741 140.524222,31.5897346 139.586005,31.5897346" id="Fill-76" fill="#7B7A7B" mask="url(#mask-8)"></path>
                            <polygon id="Fill-77" fill="#7B7A7B" mask="url(#mask-8)" points="144.580336 28.0886543 144.580336 31.552358 143.485461 31.552358 143.485461 28.0886543 142.390586 28.0886543 142.390586 27.1168642 145.675211 27.1168642 145.675211 28.0886543"></polygon>
                            <path d="M148.655458,28.0945741 L148.0362,28.0945741 L148.0362,28.9916111 L148.655458,28.9916111 C148.955323,28.9916111 149.131075,28.7738333 149.131075,28.5430926 C149.131075,28.312784 148.955323,28.0945741 148.655458,28.0945741 Z M149.193131,31.5522284 L148.405064,29.9016111 L148.0362,29.9016111 L148.0362,31.5522284 L146.940892,31.5522284 L146.940892,27.1163025 L148.705363,27.1163025 C149.694352,27.1163025 150.22595,27.8150062 150.22595,28.5430926 C150.22595,29.1475988 149.850577,29.5274136 149.499505,29.7024136 L150.463759,31.5522284 L149.193131,31.5522284 Z" id="Fill-78" fill="#7B7A7B" mask="url(#mask-8)"></path>
                            <path d="M153.637942,28.2443395 C153.556358,28.1384753 153.400133,28.0511914 153.199644,28.0511914 C152.999156,28.0511914 152.842931,28.1384753 152.761347,28.2443395 C152.661971,28.3748333 152.599047,28.5243395 152.599047,29.3345247 C152.599047,30.1442778 152.661971,30.2877346 152.761347,30.4182284 C152.842931,30.5245247 152.999156,30.617858 153.199644,30.617858 C153.400133,30.617858 153.556358,30.5245247 153.637942,30.4182284 C153.737318,30.2877346 153.800242,30.1442778 153.800242,29.3345247 C153.800242,28.5243395 153.737318,28.3748333 153.637942,28.2443395 M154.444669,31.0914383 C154.119634,31.4155123 153.743827,31.5896481 153.199644,31.5896481 C152.655462,31.5896481 152.279654,31.4155123 151.95462,31.0914383 C151.485078,30.6243395 151.503738,30.0012531 151.503738,29.3345247 C151.503738,28.6673642 151.485078,28.0442778 151.95462,27.5776111 C152.279654,27.253537 152.655462,27.0794012 153.199644,27.0794012 C153.743827,27.0794012 154.119634,27.253537 154.444669,27.5776111 C154.913777,28.0442778 154.895551,28.6673642 154.895551,29.3345247 C154.895551,30.0012531 154.913777,30.6243395 154.444669,31.0914383" id="Fill-79" fill="#7B7A7B" mask="url(#mask-8)"></path>
                        </g>
                    </g>
                </g>
            </g>
        </g>
    </g>
</svg>