<?xml version="1.0" encoding="UTF-8"?>
<svg width="11px" height="11px" viewBox="0 0 11 11" version="1.1" xmlns="http://www.w3.org/2000/svg" xmlns:xlink="http://www.w3.org/1999/xlink">
    <!-- Generator: Sketch 52.4 (67378) - http://www.bohemiancoding.com/sketch -->
    <title>Group 6 Copy 11</title>
    <desc>Created with Sketch.</desc>
    <g id="Page-1" stroke="none" stroke-width="1" fill="none" fill-rule="evenodd">
        <g id="Desktop-Copy-17" transform="translate(-291.000000, -358.000000)">
            <g id="Group-6-Copy-11" transform="translate(291.000000, 358.000000)">
                <path d="M5.5,2 C3.56643648,2 2,3.56717662 2,5.49979165 C2,7.43282338 3.56643648,9 5.5,9 C7.43356352,9 9,7.43282338 9,5.49979165 C9,3.56717662 7.43356352,2 5.5,2" id="Fill-85-Copy" fill="#027B39" transform="translate(5.500000, 5.500000) rotate(-90.000000) translate(-5.500000, -5.500000) "></path>
                <path d="M5.5,9.84889075 C3.10185573,9.84889075 1.15110925,7.89814427 1.15110925,5.5 C1.15110925,3.10223943 3.10185573,1.15110925 5.5,1.15110925 C7.89814427,1.15110925 9.84889075,3.10223943 9.84889075,5.5 C9.84889075,7.89814427 7.89814427,9.84889075 5.5,9.84889075 M5.5,0 C2.46759453,0 0,2.46721083 0,5.5 C0,8.53278917 2.46759453,11 5.5,11 C8.53240547,11 11,8.53278917 11,5.5 C11,2.46721083 8.53240547,0 5.5,0" id="Fill-87-Copy" fill="#F0BC5E" transform="translate(5.500000, 5.500000) rotate(-90.000000) translate(-5.500000, -5.500000) "></path>
            </g>
        </g>
    </g>
</svg>