<?xml version="1.0" encoding="UTF-8"?>
<svg width="23px" height="23px" viewBox="0 0 23 23" version="1.1" xmlns="http://www.w3.org/2000/svg" xmlns:xlink="http://www.w3.org/1999/xlink">
    <!-- Generator: Sketch 52.4 (67378) - http://www.bohemiancoding.com/sketch -->
    <title>smartphone copy 2</title>
    <desc>Created with Sketch.</desc>
    <g id="Page-1" stroke="none" stroke-width="1" fill="none" fill-rule="evenodd">
        <g id="home" transform="translate(-128.000000, -3578.000000)" fill="#000000" fill-rule="nonzero">
            <g id="smartphone-copy-2" transform="translate(128.000000, 3578.000000)">
                <path d="M16.3157353,0 L6.68426471,0 C5.75591176,0 5,0.75785 5,1.68858333 L5,21.3110333 C5,22.24215 5.75591176,23 6.68426471,23 L16.3153529,23 C17.2440882,23 18,22.24215 18,21.3114167 L18,1.68858333 C18,0.75785 17.2440882,0 16.3157353,0 Z M5.76470588,3.06666667 L17.2352941,3.06666667 L17.2352941,17.6333333 L5.76470588,17.6333333 L5.76470588,3.06666667 Z M6.68426471,0.766666667 L16.3153529,0.766666667 C16.8227353,0.766666667 17.2352941,1.18028333 17.2352941,1.68858333 L17.2352941,2.3 L5.76470588,2.3 L5.76470588,1.68858333 C5.76470588,1.18028333 6.17726471,0.766666667 6.68426471,0.766666667 Z M16.3157353,22.2333333 L6.68426471,22.2333333 C6.17726471,22.2333333 5.76470588,21.8197167 5.76470588,21.3114167 L5.76470588,18.4 L17.2352941,18.4 L17.2352941,21.3114167 C17.2352941,21.8197167 16.8227353,22.2333333 16.3157353,22.2333333 Z" id="Shape"></path>
                <path d="M11.5,19 C10.67275,19 10,19.67275 10,20.5 C10,21.32725 10.67275,22 11.5,22 C12.32725,22 13,21.32725 13,20.5 C13,19.67275 12.32725,19 11.5,19 Z M11.5,21.25 C11.086375,21.25 10.75,20.913625 10.75,20.5 C10.75,20.086375 11.086375,19.75 11.5,19.75 C11.913625,19.75 12.25,20.086375 12.25,20.5 C12.25,20.913625 11.913625,21.25 11.5,21.25 Z" id="Shape"></path>
                <path d="M10.3333333,2 L11.6666667,2 C11.851,2 12,1.7765 12,1.5 C12,1.2235 11.851,1 11.6666667,1 L10.3333333,1 C10.149,1 10,1.2235 10,1.5 C10,1.7765 10.149,2 10.3333333,2 Z" id="Shape"></path>
                <path d="M12.3333333,2 L12.6666667,2 C12.851,2 13,1.7765 13,1.5 C13,1.2235 12.851,1 12.6666667,1 L12.3333333,1 C12.149,1 12,1.2235 12,1.5 C12,1.7765 12.149,2 12.3333333,2 Z" id="Shape"></path>
                <path d="M21.6702655,1.1209902 C21.5167591,0.959669933 21.2686362,0.959669933 21.1151298,1.1209902 C20.9616234,1.28231047 20.9616234,1.54306343 21.1151298,1.7043837 C22.5818815,3.2457968 22.5818815,5.75389376 21.1151298,7.29571944 C20.9616234,7.45703971 20.9616234,7.71779268 21.1151298,7.87911294 C21.1916867,7.95956679 21.2921922,8 21.3926976,8 C21.4932031,8 21.5937086,7.95956679 21.6702655,7.87911294 C23.4432448,6.01629706 23.4432448,2.98421867 21.6702655,1.1209902 Z" id="Shape"></path>
                <path d="M20.4054022,2.11553235 C20.3125557,1.96148922 20.1624814,1.96148922 20.0696349,2.11553235 C19.9767884,2.26957549 19.9767884,2.51856594 20.0696349,2.67260908 C20.3633719,3.15995272 20.5250816,3.80921895 20.5250816,4.50024623 C20.5250816,5.19127352 20.3633719,5.84014577 20.0696349,6.32748941 C19.9767884,6.48153255 19.9767884,6.730523 20.0696349,6.88456614 C20.1159394,6.96139072 20.176729,7 20.2375186,7 C20.2983081,7 20.3590977,6.96139072 20.4054022,6.88456614 C20.7888988,6.24869497 21,5.40165468 21,4.50024623 C21,3.59883778 20.7891362,2.75140353 20.4054022,2.11553235 Z" id="Shape"></path>
                <path d="M1.8848702,1.7043837 C2.0383766,1.54306343 2.0383766,1.28231047 1.8848702,1.1209902 C1.73136379,0.959669933 1.48324091,0.959669933 1.3297345,1.1209902 C-0.443244835,2.98421867 -0.443244835,6.01588448 1.3297345,7.87911294 C1.40629141,7.95956679 1.50679688,8 1.60730235,8 C1.70780782,8 1.80831329,7.95956679 1.8848702,7.87911294 C2.0383766,7.71779268 2.0383766,7.45703971 1.8848702,7.29571944 C0.417725867,5.75430634 0.417725867,3.24620939 1.8848702,1.7043837 Z" id="Shape"></path>
                <path d="M2.93036509,2.11553235 C2.83751855,1.96148922 2.68744435,1.96148922 2.5945978,2.11553235 C2.21110122,2.75140353 2,3.59844381 2,4.49985226 C2,5.40126071 2.21110122,6.24830099 2.5945978,6.88456614 C2.64090234,6.96139072 2.7016919,7 2.76248145,7 C2.823271,7 2.88406055,6.96139072 2.93036509,6.88456614 C3.02321164,6.730523 3.02321164,6.48153255 2.93036509,6.32748941 C2.63662808,5.84014577 2.47491837,5.19087954 2.47491837,4.49985226 C2.47491837,3.80882498 2.63639062,3.15995272 2.93036509,2.67260908 C3.02297418,2.51895991 3.02297418,2.26957549 2.93036509,2.11553235 Z" id="Shape"></path>
            </g>
        </g>
    </g>
</svg>